<?xml version="1.0"?>

<robot name="bar_bases"
    xmlns:sensor="http://playerstage.sourceforge.net/gazebo/xmlschema/#sensor"
    xmlns:controller="http://playerstage.sourceforge.net/gazebo/xmlschema/#controller"
    xmlns:interface="http://playerstage.sourceforge.net/gazebo/xmlschema/#interface"
    xmlns:xacro="http://playerstage.sourceforge.net/gazebo/xmlschema/#interface">

	<xacro:property name="pi" value="3.1415926535897931" />
    
	<link name="center_link">
<!--
	  <inertial>
		<mass value="0.0001" />
		<origin xyz="0 0 0.0" />
		<inertia ixx="0.0" ixy="0.0" ixz="0.0" iyy="0.0" iyz="0.0" izz="0.0" />
	  </inertial>
-->
	</link>
    
    <!-- Add a bar_base -->
    <xacro:include filename="$(find bonebraker_moveit)/urdf/bar_bases/bar_base_macro.urdf.xacro" />

    <xacro:bar_base number="1" 	parent="center_link" 	x="-7.300" 	y="-0.035" 	z="1.035" 	yaw="${pi/4}"/>
    <xacro:bar_base number="2" 	parent="center_link" 	x="-6.700" 	y="-0.035" 	z="1.035" 	yaw="${-pi/4}"/>
    <xacro:bar_base number="3" 	parent="center_link" 	x="-7.301" 	y="0.465" 	z="1.035" 	yaw="${pi/4}"/>
	<xacro:bar_base number="4" 	parent="center_link" 	x="-6.700" 	y="0.465" 	z="1.035" 	yaw="${-pi/4}"/>
    <xacro:bar_base number="5" 	parent="center_link" 	x="-7.300" 	y="-0.535" 	z="1.035" 	yaw="${pi/4}"/>
    <xacro:bar_base number="6" 	parent="center_link" 	x="-6.700" 	y="-0.535" 	z="1.035" 	yaw="${-pi/4}"/>
    
    <xacro:bar_base number="7" 	parent="center_link" 	x="6.300" 	y="4.965" 	z="1.035" 	yaw="${-pi/4}"/>
    <xacro:bar_base number="8" 	parent="center_link" 	x="5.700" 	y="4.965" 	z="1.035" 	yaw="${pi/4}"/>
    <xacro:bar_base number="9" 	parent="center_link" 	x="6.300" 	y="5.465" 	z="1.035" 	yaw="${-pi/4}"/>
	<xacro:bar_base number="10" parent="center_link"  	x="5.700" 	y="5.465" 	z="1.035" 	yaw="${pi/4}"/>
    <xacro:bar_base number="11" parent="center_link"  	x="6.300" 	y="4.465" 	z="1.035" 	yaw="${-pi/4}"/>
    <xacro:bar_base number="12" parent="center_link"  	x="5.700" 	y="4.465" 	z="1.035" 	yaw="${pi/4}"/>
    
    <xacro:bar_base number="13" parent="center_link" 	x="6.300" 	y="-4.965" 	z="1.035" 	yaw="${-pi/4}"/>
    <xacro:bar_base number="14" parent="center_link" 	x="5.700" 	y="-4.965" 	z="1.035" 	yaw="${pi/4}"/>
    <xacro:bar_base number="15" parent="center_link" 	x="6.300" 	y="-4.465" 	z="1.035" 	yaw="${-pi/4}"/>
	<xacro:bar_base number="16" parent="center_link"  	x="5.700" 	y="-4.465" 	z="1.035" 	yaw="${pi/4}"/>
    <xacro:bar_base number="17" parent="center_link"  	x="6.300" 	y="-5.465" 	z="1.035" 	yaw="${-pi/4}"/>
    <xacro:bar_base number="18" parent="center_link"  	x="5.700" 	y="-5.465" 	z="1.035" 	yaw="${pi/4}"/>
    
    
	<gazebo>
		<static>true</static>			
	</gazebo>  

</robot>
