<?xml version="1.0"?>

<robot name="multi_bonebraker"
    xmlns:sensor="http://playerstage.sourceforge.net/gazebo/xmlschema/#sensor"
    xmlns:controller="http://playerstage.sourceforge.net/gazebo/xmlschema/#controller"
    xmlns:interface="http://playerstage.sourceforge.net/gazebo/xmlschema/#interface"
    xmlns:xacro="http://playerstage.sourceforge.net/gazebo/xmlschema/#interface">

	<xacro:property name="pi" value="3.1415926535897931" />

    <!-- Included URDF Files -->
    <xacro:include filename="$(find bonebraker_moveit)/urdf/multi_bonebraker/multi_bonebraker_base.urdf.xacro" />
    
    <!-- Instantiate multi_bonebraker_base_macro once -->
    <xacro:multi_bonebraker_base_macro id="2"/>
    

</robot>
