<?xml version="1.0"?>

<robot xmlns:xacro="http://ros.org/wiki/xacro">
    <xacro:property name="M_PI" value="3.1415926535897931" />
  
    <xacro:macro name="inspection_camera" params="name parent x y z roll pitch yaw">
      <joint name="${name}_joint" type="fixed">
        <origin xyz="${x} ${y} ${z}" rpy="${roll} ${pitch} ${yaw}"/>
        <parent link="${parent}"/>
        <child link="${name}_camera_link"/>
      </joint>

  <!-- ${name}_camera -->
  <link name="${name}_camera_link">
    <visual>
      <origin xyz="0 0 0" rpy="0 0.0 0"/>
      <geometry>
         <box size="0.010 0.075 0.025"/>
      </geometry>
      <material name="black">
       <color rgba="1 1 1 0.3"/>
     </material>
    </visual>
    <inertial>
      <mass value="0.0" />
      <origin xyz="${-x} ${-y} ${-z}" rpy="0 0.0 0.0"/>
      <inertia ixx="0" ixy="0" ixz="0" iyy="0" iyz="0" izz="0" />
    </inertial>
  </link>
 <gazebo reference="${name}_camera_link">
    <material>Gazebo/Green</material>
    <turnGravityOff>true</turnGravityOff>
 </gazebo>

<!-- ${name}_camera -->
  <gazebo reference="${name}_camera_link">
    <sensor type="camera" name="${name}_camera">
      <update_rate>10.0</update_rate>
      <camera name="head">
        <horizontal_fov>1.3962634</horizontal_fov>
        <image>
          <width>800</width>
          <height>800</height>
          <format>R8G8B8</format>
        </image>
        <clip>
          <near>0.02</near>
          <far>300</far>
        </clip>
        <noise>
          <type>gaussian</type>
          <!-- Noise is sampled independently per pixel on each frame.
               That pixel's noise value is added to each of its color
               channels, which at that point lie in the range [0,1]. -->
          <mean>0.0</mean>
          <stddev>0.007</stddev>
        </noise>
      </camera>
      <plugin name="camera_plugin" filename="libgazebo_ros_camera.so">
        <alwaysOn>true</alwaysOn>
        <updateRate>0.0</updateRate>
        <cameraName>/${name}_camera</cameraName>
        <imageTopicName>image_raw</imageTopicName>
        <cameraInfoTopicName>${name}_camera_info</cameraInfoTopicName>
        <frameName>${name}_camera_link</frameName>
        <hackBaseline>0.07</hackBaseline>
        <distortionK1>0.0</distortionK1>
        <distortionK2>0.0</distortionK2>
        <distortionK3>0.0</distortionK3>
        <distortionT1>0.0</distortionT1>
        <distortionT2>0.0</distortionT2>
      </plugin>
    </sensor>
  </gazebo>
</xacro:macro>
</robot>
