<?xml version="1.0"?>

<robot xmlns:sensor="http://playerstage.sourceforge.net/gazebo/xmlschema/#sensor"
xmlns:controller="http://playerstage.sourceforge.net/gazebo/xmlschema/#controller"
xmlns:interface="http://playerstage.sourceforge.net/gazebo/xmlschema/#interface"
xmlns:xacro="http://ros.org/wiki/xacro"
>

  <!-- Quadrotor Sensor Plugins -->
  <xacro:macro name="quadrotor_sensors">
    <gazebo>
      <plugin name="quadrotor_groundtruth_sim" filename="libgazebo_ros_p3d.so">
        <updateRate>100.0</updateRate>
        <bodyName>base_link</bodyName>
        <topicName>/ground_truth/state</topicName>
        <gaussianNoise>0.0</gaussianNoise>
        <frameName>map</frameName>
        <xyzOffsets>0 0 0</xyzOffsets>
        <!-- initialize odometry for fake localization-->
        <rpyOffsets>0 0 0</rpyOffsets>
        <interface:position name="p3d_base_position"/>
      </plugin>

    </gazebo>
  </xacro:macro>
</robot>
